…
2.  Revenue vs price and actual blackouts and ownership

- Q: does less profit and community owned mean less blackouts? Or does
  ownership tell us that big companies have more means to prevent
  blackouts?

``` r
disturbance |> 
  group_by(Entity) |>
  count() |>
  arrange(n)
```

    ## # A tibble: 1,308 × 2
    ## # Groups:   Entity [1,308]
    ##    Entity                        n
    ##    <chr>                     <int>
    ##  1 AGC Division of APGI Inc      1
    ##  2 American PowerNet             1
    ##  3 Ammper Power LLC              1
    ##  4 Arrow Energy TX LLC           1
    ##  5 BKV-BPP Retail, LLC           1
    ##  6 BP Energy Company             1
    ##  7 BP Energy Retail LLC          1
    ##  8 Basin Electric Power Coop     1
    ##  9 Branch Energy Texas LLC       1
    ## 10 Calpine Power America LLC     1
    ## # ℹ 1,298 more rows
…
           case_when(
    `Entity` %in% 
      c("American Electric Power (Regulated Generation)", 
      "American Electric Power - (RFC Reliability Region) (8400 Smiths Mill Road, New Albany Ohio 43054)")
        ~ "American Electric Power", 
     `Entity` %in% 
      c("Baltimore Gas & Electric Co",  
"Baltimore Gas and Electric") ~ "Baltimore Gas & Electric",
     TRUE ~ as.character(as.character(`Entity`))
    )) |>
    group_by(Company) |>
  count()
```

    ## # A tibble: 1,308 × 2
    ## # Groups:   Company [1,308]
    ##    Company                            n
    ##    <chr>                          <int>
    ##  1 3000 Energy Corp                   2
    ##  2 4-County Electric Power Assn       3
    ##  3 A & N Electric Coop                5
    ##  4 AGC Division of APGI Inc           1
    ##  5 ALLETE, Inc.                       3
    ##  6 AP Holdings LLC                    2
    ##  7 Accent Energy Holdings, LLC        2
    ##  8 Access Energy Coop                 3
    ##  9 Adams Electric Cooperative Inc     3
    ## 10 Adams-Columbia Electric Coop       3
    ## # ℹ 1,298 more rows
…
